Number, Goods, FLOAT: Value Low, FLOAT: Value High, Unit, Description
1, Armor, 40, 700, Suit or Shield, "Fine quality armor, made with fine or even exotic materials."
2, Weapon, 40, 600, Item, "Superb weapons, made with exceptional materials."
3, Coffee or tea, 1, 5, Pound, Price varies with quality.
4, Exotic fruit, 0.1, 10, Pound, Price varies with rarity.
5, Bar: Rare metal, 200, 6250, Bar (25 pounds), Stamped with the symbol of its maker.
6, Leather, 20, 400, Pound, "Each 2 sq. yards is approximately 2 pounds. Price varies on workmanship of leather - simple embossing offers a value of 20 sp per pound while magically enhanced leather or leather from dangerous, unique or difficult to obtain creatures can go much higher."
7, Silks, 20, 400, Pound, "Each 2 sq. yards is approximately 2 pounds. Price varies on workmanship - common shades command low prices whereas complex patterns or unusual or rare shades command the most."
8, Fabrics, 20, 400, Pound, "Each 2 sq. yards is approximately 2 pounds. Price varies with workmanship - plain, but fine wools command the lowest prices, while fabrics made of exotic materials such as spidergoat silk command the highest."
9, Narcotics or medicine, 50, 5000, Pound, "May be illegal and as such, it may be extraordinarily difficult to find a buyer."
10, Perfume, 0.2, 20, ounce, "High quality perfume, cologne or eau de toilette. Made of the finest musks, herbal infusions and oils."
11, Ingot: Rare, 15, 80, Pound, "Ingots are 1 pound each."
12, Ingot: Magical, 430, 760, Pound, "Ingots are 1 pound each."
13, Lumber and Ivory, 20.0, 100.0, cord, "A full cord of lumber or ivory measures four feet wide, four feet high by 8 feet long (w:4' x h:4' x l:8'), has a volume of 128 ft^3 and has a weight that varies wildly, depending on the wood.  It can weigh anywhere between -2000 pounds a cord for skywood to 5000 pounds a cord for exotic Palinor wood.  Each cord takes up a quarter-ton of space in a ship.  It ranges in value between 20 sp per cord for decorative magical wood to 100 sp per cord for wood with useful properties.  These woods are well suited for the creation of magical items."
14, Religious artifacts, 5, 400, Pound, "Can weigh nearly anything, from altars (10 to 2200 pounds) to ceremonial garments (1 pound per 2 sq yards) to banners and tapestries hung in a shrine.  They are of surpassing quality and craftmanship."
15, Scrolls & books, 50, 400000, each, "Repositories of knowledge, some may even be magical! Books may contribute their sp value in worth to the stocking of a Library.  A book will be able to grant the answer to a random number of questions related to the topic of the book.  After all answers have been exhausted, the book merely contributes its value to your library."
16, Laboratory items, 25, 55, Pound, "Laboratory items are made of glass, iron and steel.  The glass items particularly are difficult to transport, but everything here contributes its sp value in worth towards the stocking of a Laboratory or Workshop."
17, Magical components, 10, 300, Pound, "Magical components come in a dizzying array of objects. Select some that are appropriate to your campaign milieu."
18, Bar: Magical metal, 4000, 12500, Bar (25 pounds), Stamped with the symbol of its maker.  May very well be cursed, unused magical elements and alloys are usually the result of the interruption of large magics.
19, "Furs, Skins and Hides", 30.0, 200.0, Pound, "High value or well crafted animal hides, skins and furs, 30 to 200 sp per pound."
