DieRoll, Name, Category, Description
1, Azurite, Ornamental, "Azurite is a soft, deep blue copper mineral produced by weathering of copper ore deposits. The blue of azurite is exceptionally deep and clear, and for that reason the mineral has tended to be associated since antiquity with the deep blue color of low-humidity desert and winter skies."
2, Banded agate, Ornamental, "Agate is a microcrystalline variety of silica, chiefly chalcedony, characterised by its fineness of grain and brightness of color.  When cut transversely, Banded Agates exhibit a succession of parallel lines, often of extreme tenuity, giving a banded appearance to the section. Such stones are known as banded agate, riband agate and striped agate."
3, Bone, Ornamental, "The bones of an animal, carved exquisitely."
4, Eye Agate, Ornamental, "Agate is a microcrystalline variety of silica, chiefly chalcedony, characterised by its fineness of grain and brightness of color.  An eye agate is an agate that exhibits one or more round concentric markings known as 'eyes.'"
5, Hematite, Ornamental, "Hematite is a mineral, colored black to steel or silver-gray, brown to reddish brown, or red.
6, Lapis lazuli, Ornamental, "Lapis lazuli (sometimes abbreviated to lapis) is a deep blue semi-precious stone that has been prized since antiquity for its intense color."
7, Malachite, Ornamental, "Malachite is a green, very common secondary copper mineral with a widely variable habit."
8, Moss agate, Ornamental, "Agate is a microcrystalline variety of silica, chiefly chalcedony, characterised by its fineness of grain and brightness of color.  It is a form of chalcedony which includes minerals of a green colour embedded in the stone, forming filaments and other patterns suggestive of moss. It also sometimes resembles blue-cheese. The field is a clear or milky-white quartz, and the included minerals are mainly oxides of manganese or iron. It is not a true form of agate, as it lacks agate's defining feature of concentric banding."
9, Obsidian, Ornamental, "Obsidian is a naturally occurring volcanic glass formed as an extrusive igneous rock. Pure obsidian is usually dark in appearance, though the color varies depending on the presence of impurities. Iron and magnesium typically give the obsidian a dark brown to black color. Very few samples are nearly colorless. In some stones, the inclusion of small, white, radially clustered crystals of cristobalite in the black glass produce a blotchy or snowflake pattern (snowflake obsidian). It may contain patterns of gas bubbles remaining from the lava flow, aligned along layers created as the molten rock was flowing before being cooled. These bubbles can produce interesting effects such as a golden sheen (sheen obsidian). An iridescent, rainbow-like sheen (rainbow obsidian) is caused by inclusions of magnetite nanoparticles."
10, Pyrite, Ornamental, "This mineral's metallic luster and pale brass-yellow hue give it a superficial resemblance to gold, hence the well-known nickname of fool's gold. The color has also led to the nicknames brass, brazzle, and Brazil, primarily used to refer to pyrite found in coal."
11, Rhodochrosite, Ornamental, "In its (rare) pure form, it is typically a rose-red color, but impure specimens can be shades of pink to pale brown. It streaks white."
12, Tiger eye, Ornamental, "Tiger's eye (also called Tigers eye or Tiger eye) is a chatoyant gemstone that is usually a metamorphic rock that is a golden to red-brown color, with a silky luster. An incompletely silicified blue variant is called Hawk's eye."
13, Turquoise, Ornamental, "Turquoise is an opaque, blue-to-green mineral.  It is rare and valuable in finer grades and has been prized as a gem and ornamental stone for thousands of years owing to its unique hue."
14, Mother of pearl, Ornamental, "Nacre, also known as mother of pearl, is an organic-inorganic composite material produced by some molluscs as an inner shell layer; it is also what makes up the outer coating of pearls. It is strong, resilient, and iridescent."
15, Amazon stones, Semi-precious, "Amazonite (sometimes called 'Amazon stone') is a green variety of microcline feldspar.  Because of its bright green color when polished, amazonite is sometimes cut and used as a gemstone, although it is easily fractured.

For many years, the source of amazonite's color was a mystery. Naturally, many people assumed the color was due to copper because copper compounds often have blue and green colors. More recent studies suggest that the blue-green color results from small quantities of lead and water in the feldspar."
16, Bloodstone, Semi-precious, "The mineral heliotrope, also known as bloodstone, is a form of chalcedony.  The 'classic' bloodstone is green chalcedony with red inclusions of iron oxide or red jasper. Sometimes the inclusions are yellow, in which case the mineral is given the name plasma. The red inclusions are supposed to resemble spots of blood; hence the name 'bloodstone'."
17, Carnelian, Semi-precious, "Carnelian (also spelled cornelian) is a brownish-red mineral which is commonly used as a semi-precious gemstone. Similar to carnelian is sard, which is generally harder and darker (the difference is not rigidly defined, and the two names are often used interchangeably). Both carnelian and sard are varieties of the silica mineral chalcedony colored by impurities of iron oxide. The color can vary greatly, ranging from pale orange to an intense almost-black coloration."
18, Chalcedony, Semi-precious, "Chalcedony has a waxy luster, and may be semitransparent or translucent. It can assume a wide range of colors, but those most commonly seen are white to gray, grayish-blue or a shade of brown ranging from pale to nearly black.  Agate, Aventurine, Carnelian, Chrysoprase, Heliotrope, Jasper, Moss agate, Mtorolite, Onyx and Sardonyx are all forms of Chalcedony."
19, Chrysoprase, Semi-precious, "Chrysoprase (also spelled chrysophrase) is a green variety of chalcedony."
20, Citrine, Semi-precious, "Citrine is a variety of quartz whose color ranges from a pale yellow to brown."
21, Jasper, Semi-precious, "Jasper, a form of chalcedony, is an opaque,] impure variety of silica, usually red, yellow, brown or green in color; and rarely blue.  The name means 'spotted or speckled stone'."
22, Moonstone, Semi-precious, "Moonstone has been used in jewelry for centuries, including ancient civilizations.  Some of the Tribes believe it was born from solidified rays of the moon."
23, Onyx, Semi-precious, "Onyx is a banded variety of chalcedony. The colors of its bands range from white to almost every color (save some shades, such as purple or blue). Commonly, specimens of onyx contain bands of black and/or white."
24, Rock crystal, Semi-precious, "Pure quartz, traditionally called rock crystal (sometimes called clear quartz), is colorless and transparent (clear) or translucent, and has often been used for hardstone carvings, such as the Lothair Crystal."
25, Sardonyx, Semi-precious, "Sardonyx is a variant of onyx in which the colored bands are sard (shades of red) rather than black. Black onyx is perhaps the most famous variety, but is not as common as onyx with colored bands."
26, Serpentine, Semi-precious, "Their olive green color and smooth or scaly appearance is the basis of the name from the Ancient word serpentinus, meaning 'serpent rock,'"
27, Smoky quartz, Semi-precious, "Smoky quartz is a brown to black variety of quartz.  Cairngorm is a variety of smoky quartz crystal found in the Cairngorm Mountains.  It usually has a smokey yellow-brown colour, though some specimens are a grey-brown."
28, Star rose quartz, Semi-precious, "Rose quartz is a type of quartz which exhibits a pale pink to rose red hue. Some rose quartz contains microscopic rutile needles which produces an asterism in transmitted light. In crystal form (rarely found) it is called pink quartz."
29, Variscite, Semi-precious, "Variscite is a relatively rare phosphate mineral. It is sometimes confused with turquoise; however, variscite is usually greener in color."
30, Amber, Fancy, "Amber is fossilized tree resin (not sap), which has been appreciated for its color and natural beauty since Neolithic times. Much valued from antiquity to the present as a gemstone, amber is made into a variety of decorative objects. Amber is used as an ingredient in perfumes, as a healing agent in folk medicine, and as jewelry.

There are five classes of amber, defined on the basis of their chemical constituents. Because it originates as a soft, sticky tree resin, amber sometimes contains animal and plant material as inclusions. Amber occurring in coal seams is also called resinite, The classical name for amber was electrum, connected to a term for the 'beaming Sun'. According to the myth, when Phaeton son of Helios (the Sun) was killed, his mourning sisters became poplars, and their tears became the origin of elektron, amber."
31, Alamandine, Fancy, "Almandine, also known incorrectly as almandite, is a species of mineral belonging to the garnet group. The name is a corruption of alabandicus, which is the name applied by Pliny the Elder to a stone found or worked at Alabanda, a town in Caria. Almandine is a garnet of deep red color, inclining to purple. It is frequently cut with a convex face, or en cabochon, and is then known as carbuncle."
32, Alexandrite, Fancy, "The alexandrite variety displays a color change (alexandrite effect) dependent upon the nature of ambient lighting. Alexandrite effect is the phenomenon of an observed color change from greenish to reddish with a change in source illumination."
33, Amethyst, Fancy, "Amethyst is a violet variety of quartz. The name comes from the Ancients: a- (not) and methustos (intoxicated), a reference to the belief that the stone protected its owner from drunkenness."
34, Chrysoberyl, Fancy, "Ordinary chrysoberyl is yellowish-green and transparent to translucent. When the mineral exhibits good pale green to yellow color and is transparent, then it is used as a gemstone. The three main varieties of chrysoberyl are: ordinary yellow-to-green chrysoberyl, cat's eye or cymophane, and alexandrite."
35, Coral, Fancy, "Precious coral or red coral is the common name given to Corallium rubrum and several related species of marine coral. The distinguishing characteristic of precious corals is their durable and intensely colored red or pink skeleton."
36, Diopside, Fancy, "Gemstone quality diopside is found in two forms: the black star diopside and the chrome diopside (which includes chromium, giving it a rich green colour). Violane is a manganese-rich variety of diopside, violet to light blue in colour."
37, Garnet, Fancy, "Garnet species are found in many colors including red, orange, yellow, green, purple, brown, blue, black, pink and colorless. The rarest of these is the blue garnet, it changes color from blue-green in the daylight to purple in incandescent light. Other varieties of color-changing garnets exist. In daylight, their color ranges from shades of green, beige, brown, gray, and blue, but in incandescent light, they appear a reddish or purplish/pink color. Because of their color-changing quality, this kind of garnet is often mistaken for Alexandrite."
38, Indicolite, Fancy, "Indicolite is a light blue to bluish green variety of tourmaline more formally known as Elbaite, which is strongly allochromatic and can form a dizzying array of colors including multicolor zonation."
39, Jade, Fancy, "Jade is an ornamental rock. The term jade is applied to two different rocks, nephrite and jadeite.  Jadeite comes in bright emerald-green, pink, lavender, blue, orange and brown colours, nephrite can be found in a creamy white form as well as in a variety of green colors."
40, Jet, Fancy, "Jet is either black or dark brown, but may contain pyrite inclusions, which are of brassy colour and metallic lustre.  Jet is not considered a true mineral, but rather a mineraloid as it has an organic origin, being derived from decaying wood under extreme pressure."
41, Morganite, Fancy, "Morganite, also known as 'pink beryl', 'rose beryl', 'pink emerald', and 'cesian (or caesian) beryl', is a rare light pink to rose-colored gem-quality variety of beryl. Orange/yellow varieties of morganite can also be found, and color banding is common."
42, Nephrite, Fancy, "Jade is an ornamental rock. The term jade is applied to two different rocks, nephrite and jadeite.  Jadeite comes in bright emerald-green, pink, lavender, blue, orange and brown colours, nephrite can be found in a creamy white form as well as in a variety of green colors."
43, Pearl, Fancy, "A pearl is a hard object produced within the soft tissue (specifically the mantle) of a living shelled mollusc. Just like the shell of a clam, a pearl is made up of calcium carbonate in minute crystalline form, which has been deposited in concentric layers. The ideal pearl is perfectly round and smooth, but many other shapes of pearls (baroque pearls) occur. The finest quality natural pearls have been highly valued as gemstones and objects of beauty for many centuries, and because of this, the word pearl has become a metaphor for something very rare, fine, admirable, and valuable."
44, Spinel, Fancy, "It may be colorless, but is usually various shades of red, blue, green, yellow, brown, or black. There is a unique natural white spinel, now lost, that surfaced briefly in Thrumi`Zud. Some spinels are among the most famous gemstones: Among them are the Black Prince's Ruby and the 'Timur ruby'."
45, Spessarite, Fancy, "A deep red, violet-red or orange-yellow variety of garnet."
46, Sugilite (Iuvulite), Fancy, "Crystals of Sugilite are rarely found.  The form is usually massive, as in a mass of tiny crystals.  It can be found in light brownish-yellow, purple, violet, reddish violet, pale pink, colourless, with a bright purple being the most valuable."
47, Rubellite, Fancy, "A red or pinkish-red variety of elbaite tourmaline."
48, Tourmaline, Fancy, "A gemstone that comes in a wide variety of species, including black schorl, dark yellow dravite, and the myriad colors of elbaite: red rubellite, light blue to greenish-blue indicolite, green verdelite and the colorless achroite."
49, Zircon, Fancy, "The natural color of zircon varies between colorless, yellow-golden, red, brown, blue, and green."
50, Aquamarine, Precious, "Aquamarine is a blue or turquoise variety of beryl. It occurs at most localities which yield ordinary beryl. The deep blue version of aquamarine is called maxixe. Its color fades to white when exposed to sunlight or is subjected to heat."
51, Garnet, Precious, "Garnet species are found in many colors including red, orange, yellow, green, purple, brown, blue, black, pink and colorless. The rarest of these is the blue garnet, it changes color from blue-green in the daylight to purple in incandescent light. Other varieties of color-changing garnets exist. In daylight, their color ranges from shades of green, beige, brown, gray, and blue, but in incandescent light, they appear a reddish or purplish/pink color. Because of their color-changing quality, this kind of garnet is often mistaken for Alexandrite."
52, Black pearl, Precious, "The black pearl comes in various shapes, sizes, and colors; shapes include round, semi-round, button, circle, oval, teardrop, semi-baroque and baroque. However, black pearls have the ability to contain various undertones and overtones of green, pink, blue, silver and yellow. All (or any combination) of these colors may be seen in a  black pearl. Due to the variety of shapes and colors of the black pearl, it has been known to fit in any jewelry setting. The versatility and mixture of color give it its value."
53, Peridot, Precious, "Peridot is one of the few gemstones that occur in only one color, an olive green. The intensity and tint of the green, however, depends on how much iron is contained in the crystal structure, so the color of individual peridot gems can vary from yellow--to olive--to brownish-green. The most valued color is a dark olive-green."
54, Spinel, Precious, "It may be colorless, but is usually various shades of red, blue, green, yellow, brown, or black. There is a unique natural white spinel, now lost, that surfaced briefly in Thrumi`Zud. Some spinels are among the most famous gemstones: Among them are the Black Prince's Ruby and the 'Timur ruby'."
55, Kunzite, Precious, "Kunzite is a pink to lilac colored gemstone, a variety of spodumene with the color coming from minor to trace amounts of manganese. Many kunzites fade when exposed to sunlight."
56, Hiddenite, Precious, "This emerald green variety of spodumene is colored by chromium, just like emeralds. Not all green spodumene is colored with chromium, which tend to have a lighter color, and therefore are not true hiddenite."
57, Topaz, Precious, "Pure topaz is colorless and transparent but is usually tinted by impurities; typical topaz is wine, yellow, pale gray, reddish-orange, or blue brown. It can also be made white, pale green, blue, gold, pink (rare), reddish-yellow or opaque to transparent/translucent."
58, Zoisite (Tanzanite), Precious, "Zoisite may be blue to violet, green, brown, pink, yellow, gray, or colorless. It has a vitreous luster and a conchoidal to uneven fracture. When euhedral, zoisite crystals are striated parallel to the principal axis. Tanzanite is noted for its remarkably strong trichroism, appearing alternately sapphire blue, violet and burgundy depending on crystal orientation."
59, Black opal, Gem, "Precious opal ranges from clear through white, gray, red, orange, yellow, green, blue, magenta, rose, pink, slate, olive, brown, and black. Of these hues, the reds against black are the most rare, whereas white and greens are the most common. It varies in optical density from opaque to semi-transparent."
60, Emerald, Gem, "Emeralds occur in hues ranging from yellow-green to blue-green, with the primary hue necessarily being green. Yellow and blue are the normal secondary hues found in emeralds. Only gems that are medium to dark in tone are considered emerald; light-toned gems are known instead by the species name green beryl. The finest emerald are approximately 75% tone on a scale where 0% tone would be colorless and 100% would be opaque black. In addition, a fine stone should be well saturated; the hue of an emerald should be bright (vivid). Gray is the normal saturation modifier or mask found in emerald; a grayish-green hue is a dull green hue.

Emeralds are green by definition (the name is derived from the Ancient word 'smaragdus', meaning green). Emeralds are the green variety of beryl, a mineral which comes in many other colors that are sometimes also used as gems, such as blue aquamarine, yellow heliodor, pink morganite, red 'red beryl' or bixbite, and colorless goshenite."
61, Fire opal, Gem, "Precious opal ranges from clear through white, gray, red, orange, yellow, green, blue, magenta, rose, pink, slate, olive, brown, and black.  Fire opal is a transparent to translucent opal, with warm body colors of yellow, orange, orange-yellow or red. It does not usually show any play of color, although occasionally a stone will exhibit bright green flashes. Fire opals that do not show play of color are sometimes referred to as jelly opals."
62, Garnet, Gem, "Garnet species are found in many colors including red, orange, yellow, green, purple, brown, blue, black, pink and colorless. The rarest of these is the blue garnet, it changes color from blue-green in the daylight to purple in incandescent light. Other varieties of color-changing garnets exist. In daylight, their color ranges from shades of green, beige, brown, gray, and blue, but in incandescent light, they appear a reddish or purplish/pink color. Because of their color-changing quality, this kind of garnet is often mistaken for Alexandrite."
63, Opal, Gem, "Precious opal ranges from clear through white, gray, red, orange, yellow, green, blue, magenta, rose, pink, slate, olive, brown, and black. Of these hues, the reds against black are the most rare, whereas white and greens are the most common. Blue opal is a semi-opaque to opaque blue-green stone found in the Glowworm Steppes which is often cut to include the matrix in the more opaque stones. It varies in optical density from opaque to semi-transparent. There are other kinds of common opal such as the milk opal, milky bluish to greenish (which can sometimes be of gemstone quality); resin opal, which is honey-yellow with a resinous luster; wood opal, which is caused by the replacement of the organic material in wood with opal; menilite, which is brown or grey; hyalite, a colorless glass-clear opal sometimes called Muller's Glass; geyserite, also called siliceous sinter, deposited around hot springs or geysers; and diatomite or diatomaceous earth, the accumulations of diatom shells or tests."
64, Oriental amethyst, Gem, "A species of sapphire, the oriental amethyst ranges from a light blue-purple to a deep red-purple pushing it close to being called a ruby.  Corundum is one of the naturally clear transparent materials, but can have different colors when impurities are present. Transparent specimens are used as gems, called ruby if red and padparadscha if pink-orange. All other colors are called sapphire, e.g., 'green sapphire' for a green specimen.  Corundum is also one of the hardest minerals known and can scratch most anything, with the notable exceptions of diamonds and tempered adamantium alloy."
65, Oriental topaz, Gem, "A species of sapphire, the oriental topaz ranges from a light yellow to a saturated canary yellow.  Corundum is one of the naturally clear transparent materials, but can have different colors when impurities are present. Transparent specimens are used as gems, called ruby if red and padparadscha if pink-orange. All other colors are called sapphire, e.g., 'green sapphire' for a green specimen.  Corundum is also one of the hardest minerals known and can scratch most anything, with the notable exceptions of diamonds and tempered adamantium alloy."
66, Sapphire, Gem, "The sapphire is one of the three gem-varieties of corundum, the other two being ruby - defined as corundum in a shade of red - and padparadscha, a pinkish orange variety. Although blue is their most well-known color, sapphires may also be colorless and they are found in many colors including shades of gray and black. Yellow and green sapphires are also commonly found. Pink sapphires deepen in color as the quantity of chromium increases. The deeper the pink color the higher their monetary value, as long as the color is tending toward the red of rubies. Sapphires also occur in shades of orange and brown. Colorless sapphires are sometimes used as diamond substitutes in jewelry. Padparadscha sapphires (pinkish orange) are rare and often draw higher prices than many of even the finest blue sapphires. A rare variety of natural sapphire, known as color-change sapphire, exhibits different colors in different light. Color change sapphires are blue in outdoor light and purple under magical lights, or green to gray-green in daylight and pink to reddish-violet in light light. Corundum is also one of the hardest minerals known and can scratch most anything, with the notable exceptions of diamonds and tempered adamantium alloy."
67, Star ruby, Gem, "Star rubies show a three-point or six-point asterism or 'star'. These rubies are cut into cabochons to display the effect properly. Asterisms are best visible with a single-light source, and move across the stone as the light moves or the stone is rotated. Such effects occur when light is reflected off the 'silk' (the structurally oriented rutile needle inclusions) in a certain way. This is one example where inclusions increase the value of a gemstone. Furthermore, rubies can show color changes - though this occurs very rarely - as well as chatoyancy or the 'cat's eye' effect."
68, Star sapphire, Gem, "A star sapphire is a type of sapphire that exhibits a star-like phenomenon known as asterism. Star sapphires contain intersecting needle-like inclusions following the underlying crystal structure that cause the appearance of a six-rayed 'star'-shaped pattern when viewed with a single overhead light source."
69, Ammolite, Jewel, "Ammolite, is an opal-like organic gemstone found primarily along the eastern slopes of the Ered Morghain. It is made of the fossilized shells of ammonites, which in turn are composed primarily of aragonite, the same mineral that makes up nacreous pearls. A large array of color is displayed in ammolite, including all the spectral colors found in nature. Red and green are far more common than blue or purple due to the latter's fragility. There are also certain hues, like crimson or violet or gold, which are derived from a combination of the primary colors, that are the rarest and in highest demand. The most valuable grades have three or more primary colors or 1 to 2 bright and even colors, with the lowest grades having one comparatively dull color predominant."
 - 70, Black sapphire, Jewel, "The sapphire is one of the three gem-varieties of corundum, the other two being ruby - defined as corundum in a shade of red - and padparadscha, a pinkish orange variety. Although blue is their most well-known color, sapphires may also be colorless and they are found in many colors including shades of gray and black."
71, Diamond, Jewel, "Diamonds occur in a variety of colors: steel gray, white, blue, yellow, orange, red, green, pink to purple, brown, and black.  In order of rarity, yellow diamond is followed by brown, colorless, then by blue, green, black, pink, orange, purple, and red."
72, Jacinth, Jewel, "Jacinth (ja'-sinth) is a red to deep purple transparent variety of zircon used as a gemstone.  As the great bard Tolkien wrote, 'Past sunless lands to fairy leas; Where stars upon the jacinth wall of space; Do tangle burst and interlace'"
73, Oriental emerald, Jewel, "A species of sapphire, the oriental emerald ranges from a light green to a saturated emerald green.  Corundum is one of the naturally clear transparent materials, but can have different colors when impurities are present. Transparent specimens are used as gems, called ruby if red and padparadscha if pink-orange. All other colors are called sapphire, e.g., 'green sapphire' for a green specimen.  Corundum is also one of the hardest minerals known and can scratch most anything, with the notable exceptions of diamonds and tempered adamantium alloy."
74, Ruby, Jewel, "A ruby is a pink to blood-red colored variety of corundum, the same gemstone that gives sapphires. All natural rubies have imperfections in them, including color impurities and inclusions of rutile needles known as 'silk'. The color of rubies varies from vermilion to red. The most desired color is 'pigeon's blood', which is pure red with a hint of blue. If the color is too pink, the stone is a pink sapphire. The same is true if it is too violet - it is a violet sapphire. The best rubies and star rubies are bright red."
75, Step cut, Cut, "Stones whose outlines are either square or rectangular and whose facets are rectilinear and arranged parallel to the girdle are known as step- or trap-cut stones.  Step cuts emphasize the jewel's clarity, rather than brilliance like the brilliant cut and its relatives."
76, Rose cut, Cut, "The basic rose cut has a flat base (no pavilion) and a crown composed of triangular facets (usually 12 or 24) in symmetrical arrangement, which rise to form a point. They are usually circular in outline."
77, Table cut, Cut, "A simple cut of 14 facets and one of the few cuts where the culet is also a major facet.  Two bands of simple sloped facets make up the crown and four facets make up the pavilion.  The table and culet are flat and the stone can rest on the culet in the upright position."
78, Cabochon cut, Cut, "A cabochon is a gemstone which has been shaped and polished as opposed to faceted. The resulting form is usually a convex top with a flat bottom. Cutting en cabochon is usually applied to opaque gems, while faceting is usually applied to transparent stones. In the case of asteriated stones such as star sapphires and chatoyant stones such as cat's eye chrysoberyl, a domed cabochon cut is used to show the star or eye, which would not be visible in a faceted cut. The usual shape for cutting cabochons is an ellipse."
79, Emerald cut, Cut, "A form of step cut, giving the gem the shape most often associated with emeralds.  The lozenge cut is a square version of this rectilinear shape cut."
80, Brilliant cut, Cut, "The round brilliant consists of 58 facets (or 57 if the culet is excluded); 33 on the crown (the top half above the middle or girdle of the stone) and 25 on the pavilion (the lower half below the girdle). Hearts and Arrows Diamonds are precision cut variations of the traditional 57 faceted round brilliant cut. They are cut to 'ideal proportions' with superior optical symmetry, polish and a specific faceting pattern. When all these factors are in harmony the result is a repeatable, near perfect pattern of eight symmetrical arrows in the face up position called 'crown' and eight symmetrical hearts when viewed in the table down position, called 'pavilion'."
81, Eight cut, Cut, "The eight cut is a simple cut of 17 facets, 1 for the table, 8 for the pavilion and 8 for the crown, not including the table, the large flat facet at the top."
82, Baguette cut, Cut, "The baguette cut is a slender, rectangular step cut that resembles a loaf of bread when viewed from the crown."
83, Marquise cut, CUt, "The marquise cut is a modification of the brilliant cut.  The resulting shape is a pointed oval and resembles the hull of a sailboat."
84, Princess cut, Cut, "The face-up shape of the princess cut is square or rectangular and the profile or side-on shape is similar to that of an inverted pyramid with four beveled sides."
85, Heart cut, Cut, "The heart cut is a modification of the brilliant cut.  The resulting shape resembles a heart."
86, Briolette cut, Cut, "A variation on the rose cut.  It has a flat base and a crown composed of triangular facets which rise to form a point.  Oval in shape."
87, Pear cut, Cut, "The pear cut or drop cut is a modification of the brilliant cut.  The resulting shape resembles a pear or water drop."
88, Cushion cut, Cut, The cushion cut is a form of brilliant cut where the view from above resembles that of a cushion."
89, Radiant cut, Cut, "The radiant cut is a variation of the Barion cut.  It is octagonal, square or rectangular with a polished and faceted girdle. It has a total of 70 facets, rather than the 62 of the Barion."
90, Asscher cut, Cut, "The Asscher cut is an octagonal cut where the crown (the top of the gem, above the girdle) has three zones of steepening gradiant."
91, Trilliant cut, Cut, "A form of step cut, giving the gem a triangular shape."
92, Kite cut, Cut, "A form of step cut, giving the gem the shape of a kite."
93, Lozenge cut, Cut, "A form of step cut, giving the gem the shape of a lozenge.  The emerald cut is a rectangular version of this squared shape cut."
94, Trapeze cut, Cut, "A form of step cut, giving the gem the shape of a trapezoid."
95, Obus cut, Cut, "The obus cut is similar to the pear or drop cut, but the angle at which the long sides come together at a point decreases before becoming sharply acute."
96, Barion cut, Cut, "The basic Barion cut is an octagonal square or rectangle, with a polished and faceted girdle. The total facet count is 62 (excluding the culet): 25 on the crown; 29 on the pavilion; and 8 on the girdle. This cut can be easily identified by the characteristic central cross pattern (as seen through the table) created by the pavilion facets, as well as by the crescent-shaped facets on the pavilion"
96, Star cut, Cut, "The star cut has a flat base (no pavilion) and a crown composed of 24 triangular facets a star-like arrangement, which rise to a small table. They are usually circular in outline."
97, Point cut, Cut, "The point cut is a simple octahedron."
98, Single cut, Cut, "The old single cut takes the square shape of the table cut and facets the corners, producing an octagonal shape from crown to pavilion."
99, Mazarin cut, Cut, "The mazarin cut is a variation on the table cut, mulitplying the facets of the crown but keeping the pyramidal shape of the pavilion."
100, Peruzzi cut, Cut, "the peruzzi cut is a variation on the table cut, multiplying the facets of both the crown and pavilion while keeping the over-all squared-with-cut-corners shape of the single-cut."