DieRoll, TrappedWith
1, Contact poison on treasure
2, Contact poison on container
4, Poisoned needles in lock
6, Poisoned needles in handle
8, Poisoned spring darts in front
10, Poisoned spring darts on top
12, Poisoned spring darts inside lid
14, Poisoned spring darts from inside bottom
15, Blade scything across top
16, Poisonous vermin (insects or reptiles)
17, Poison gas released
18, Trap door opens
19, Stone block drops
20, Magic