Number, Type, Action, Effect
1, Spikes, None, "1d4 damage to grapplers."
2, Blades, None, "May always be considered armed, with plusses equal to the higher of (armor plusses -2) or 0. 1d6 damage vs Small and medium sized creatures & 1d8 vs Large."
3, Teeth, None, "+1 to Reaction Rolls when wearer is Hostile. -1 otherwise."
4, Saws, None, "1d4 damage to grapplers, Plant- or Fungi-based creatures roll Reaction at -2."
5, Tentacles, None, "As an attack, wearer may attempt to hold a medium sized opponent, who must save to avoid.  On a failed save, wearer gets an automatic hit for maximum damage next round."
6, Light bars, Roll color, "Bars of light emanate from behind the wearer in a pattern chosen at the time the armor is put on.  Provides light as a torch."
7, Feathers, Roll feathers, "The armor is decorated with feathers."
8, Floating gems, Roll gem, "Beautiful gems orbit the wearer of the armor and any gem released in the vicinity will do the same."
9, "Light, coruscating", Roll color, "The armor coruscates with light, giving off illumination equal to a lantern."
10, "Blades, detached", None, "Blades hover above the armor, pointing outwards.  Blades at the wrist point in the direction of the wearer's hand.  May always be considered armed, with plusses equal to the higher of (armor plusses -2) or 0. 1d6 vs Small and medium /1d8 vs Large damage"
11, "Spikes, ephemeral", None, Bareley visible shimmering spikes cover the armor at strategic spots, providing 1d4 damage to grapplers."
12, "Teeth, chattering", None, "+1 to Reaction Rolls when wearer is Hostile."
13, "Spikes, retract on mental command", None, "1d4 damage to grapplers, 1d6 on the first round of grappling."
14, "Blades, retract on mental command", None, "May always be considered armed, with plusses equal to the higher of (armor plusses -1) or 0. 1d6 damage vs Small and medium sized creatures & 1d8 vs Large."
15, "Floating Gems, disappear on mental command", Roll gem, "Beautiful gems orbit the wearer of the armor and any gem released in the vicinity will do the same."
16, "Light bars, disappear on mental command", Roll color, "Bars of light emanate from behind the wearer in a pattern chosen at the time the armor is put on.  Provides light as a torch."
17, "Saws, buzz and saw on mental command", None, "1d4 damage to grapplers, +1 to Reaction Rolls if Hostile.  Plant- or Fungi-based creatures roll Reaction at -2 or -4 if buzzing."
18, "Tentacles, retract or wave on mental command", None, "As an attack, wearer may attempt to hold a medium sized opponent, who must save to avoid.  On a failed save, wearer gets an automatic hit for maximum damage next round."
19, "Feathers", Roll feathers, "The armor allows for limited flight (1 hour once per week).  The armor is decorated with feathers."
20, "Teeth, chatter and snap on mental command", None, "+1 to Reaction Rolls when wearer is Hostile."
