DieRoll, Type
03, Animal Control
06, Clairaudience
09, Clairvoyance
12, Climbing
17, Delusion
20, Diminution
23, Dragon Control
26, ESP
28, Extra-Healing
31, Fire Resistance
36, Flying
40, Gaseous Form
43, Giant Control
47, Giant Strength
50, Growth
54, Healing
58, Heroism
61, Human Control
64, Invisibility
66, Invulnerability
69, Levitation
71, Longevity
73, Oil of Sharpness
75, Oil of Slipperiness
78, Philter of Love
81, Plant Control
83, Poison
85, Polymorph
88, Speed
90, Super-Heroism
93, Sweet Water
95, Treasure Finding
97, Undead Control
100, Water Breathing